# 1 "./test/test.c"
# 1 "<built-in>"
# 1 "<command-line>"
# 1 "/usr/include/stdc-predef.h" 1 3 4
# 1 "<command-line>" 2
# 1 "./test/test.c"
# 1 "/usr/include/stdlib.h" 1 3 4
# 24 "/usr/include/stdlib.h" 3 4
# 1 "/usr/include/features.h" 1 3 4
# 374 "/usr/include/features.h" 3 4
# 1 "/usr/include/x86_64-linux-gnu/sys/cdefs.h" 1 3 4
# 385 "/usr/include/x86_64-linux-gnu/sys/cdefs.h" 3 4
# 1 "/usr/include/x86_64-linux-gnu/bits/wordsize.h" 1 3 4
# 386 "/usr/include/x86_64-linux-gnu/sys/cdefs.h" 2 3 4
# 375 "/usr/include/features.h" 2 3 4
# 398 "/usr/include/features.h" 3 4
# 1 "/usr/include/x86_64-linux-gnu/gnu/stubs.h" 1 3 4
# 10 "/usr/include/x86_64-linux-gnu/gnu/stubs.h" 3 4
# 1 "/usr/include/x86_64-linux-gnu/gnu/stubs-64.h" 1 3 4
# 11 "/usr/include/x86_64-linux-gnu/gnu/stubs.h" 2 3 4
# 399 "/usr/include/features.h" 2 3 4
# 25 "/usr/include/stdlib.h" 2 3 4







# 1 "/usr/lib/gcc/x86_64-linux-gnu/4.8/include/stddef.h" 1 3 4
# 212 "/usr/lib/gcc/x86_64-linux-gnu/4.8/include/stddef.h" 3 4
typedef long unsigned int size_t;
# 324 "/usr/lib/gcc/x86_64-linux-gnu/4.8/include/stddef.h" 3 4
typedef int wchar_t;
# 33 "/usr/include/stdlib.h" 2 3 4


# 95 "/usr/include/stdlib.h" 3 4


typedef struct
  {
    int quot;
    int rem;
  } div_t;



typedef struct
  {
    long int quot;
    long int rem;
  } ldiv_t;



# 139 "/usr/include/stdlib.h" 3 4
extern size_t __ctype_get_mb_cur_max (void) ;




extern double atof (const char *__nptr)
     ;

extern int atoi (const char *__nptr)
     ;

extern long int atol (const char *__nptr)
     ;

# 162 "/usr/include/stdlib.h" 3 4


extern double strtod (const char * __nptr,
        char ** __endptr)
     ;

# 181 "/usr/include/stdlib.h" 3 4


extern long int strtol (const char * __nptr,
   char ** __endptr, int __base)
     ;

extern unsigned long int strtoul (const char * __nptr,
      char ** __endptr, int __base)
     ;

# 372 "/usr/include/stdlib.h" 3 4


extern int rand (void) ;

extern void srand (unsigned int __seed) ;




extern int rand_r (unsigned int *__seed) ;
# 464 "/usr/include/stdlib.h" 3 4


extern void *malloc (size_t __size) ;

extern void *calloc (size_t __nmemb, size_t __size)
     ;










extern void *realloc (void *__ptr, size_t __size)
     ;

extern void free (void *__ptr) ;

# 513 "/usr/include/stdlib.h" 3 4


extern void abort (void) ;



extern int atexit (void (*__func) (void)) ;
# 530 "/usr/include/stdlib.h" 3 4

# 539 "/usr/include/stdlib.h" 3 4




extern void exit (int __status) ;








# 562 "/usr/include/stdlib.h" 3 4


extern char *getenv (const char *__name) ;

# 712 "/usr/include/stdlib.h" 3 4





extern int system (const char *__command) ;

# 742 "/usr/include/stdlib.h" 3 4
typedef int (*__compar_fn_t) (const void *, const void *);
# 752 "/usr/include/stdlib.h" 3 4



extern void *bsearch (const void *__key, const void *__base,
        size_t __nmemb, size_t __size, __compar_fn_t __compar)
     ;







extern void qsort (void *__base, size_t __nmemb, size_t __size,
     __compar_fn_t __compar) ;
# 775 "/usr/include/stdlib.h" 3 4
extern int abs (int __x) ;
extern long int labs (long int __x) ;












extern div_t div (int __numer, int __denom)
     ;
extern ldiv_t ldiv (long int __numer, long int __denom)
     ;

# 860 "/usr/include/stdlib.h" 3 4



extern int mblen (const char *__s, size_t __n) ;


extern int mbtowc (wchar_t * __pwc,
     const char * __s, size_t __n) ;


extern int wctomb (char *__s, wchar_t __wchar) ;



extern size_t mbstowcs (wchar_t * __pwcs,
   const char * __s, size_t __n) ;

extern size_t wcstombs (char * __s,
   const wchar_t * __pwcs, size_t __n)
     ;

# 955 "/usr/include/stdlib.h" 3 4
# 1 "/usr/include/x86_64-linux-gnu/bits/stdlib-float.h" 1 3 4
# 956 "/usr/include/stdlib.h" 2 3 4
# 968 "/usr/include/stdlib.h" 3 4

# 2 "./test/test.c" 2
# 1 "/usr/include/stdio.h" 1 3 4
# 29 "/usr/include/stdio.h" 3 4




# 1 "/usr/lib/gcc/x86_64-linux-gnu/4.8/include/stddef.h" 1 3 4
# 34 "/usr/include/stdio.h" 2 3 4

# 1 "/usr/include/x86_64-linux-gnu/bits/types.h" 1 3 4
# 27 "/usr/include/x86_64-linux-gnu/bits/types.h" 3 4
# 1 "/usr/include/x86_64-linux-gnu/bits/wordsize.h" 1 3 4
# 28 "/usr/include/x86_64-linux-gnu/bits/types.h" 2 3 4


typedef unsigned char __u_char;
typedef unsigned short int __u_short;
typedef unsigned int __u_int;
typedef unsigned long int __u_long;


typedef signed char __int8_t;
typedef unsigned char __uint8_t;
typedef signed short int __int16_t;
typedef unsigned short int __uint16_t;
typedef signed int __int32_t;
typedef unsigned int __uint32_t;

typedef signed long int __int64_t;
typedef unsigned long int __uint64_t;







typedef long int __quad_t;
typedef unsigned long int __u_quad_t;
# 121 "/usr/include/x86_64-linux-gnu/bits/types.h" 3 4
# 1 "/usr/include/x86_64-linux-gnu/bits/typesizes.h" 1 3 4
# 122 "/usr/include/x86_64-linux-gnu/bits/types.h" 2 3 4


typedef unsigned long int __dev_t;
typedef unsigned int __uid_t;
typedef unsigned int __gid_t;
typedef unsigned long int __ino_t;
typedef unsigned long int __ino64_t;
typedef unsigned int __mode_t;
typedef unsigned long int __nlink_t;
typedef long int __off_t;
typedef long int __off64_t;
typedef int __pid_t;
typedef struct { int __val[2]; } __fsid_t;
typedef long int __clock_t;
typedef unsigned long int __rlim_t;
typedef unsigned long int __rlim64_t;
typedef unsigned int __id_t;
typedef long int __time_t;
typedef unsigned int __useconds_t;
typedef long int __suseconds_t;

typedef int __daddr_t;
typedef int __key_t;


typedef int __clockid_t;


typedef void * __timer_t;


typedef long int __blksize_t;




typedef long int __blkcnt_t;
typedef long int __blkcnt64_t;


typedef unsigned long int __fsblkcnt_t;
typedef unsigned long int __fsblkcnt64_t;


typedef unsigned long int __fsfilcnt_t;
typedef unsigned long int __fsfilcnt64_t;


typedef long int __fsword_t;

typedef long int __ssize_t;


typedef long int __syscall_slong_t;

typedef unsigned long int __syscall_ulong_t;



typedef __off64_t __loff_t;
typedef __quad_t *__qaddr_t;
typedef char *__caddr_t;


typedef long int __intptr_t;


typedef unsigned int __socklen_t;
# 36 "/usr/include/stdio.h" 2 3 4
# 44 "/usr/include/stdio.h" 3 4
struct _IO_FILE;



typedef struct _IO_FILE FILE;





# 64 "/usr/include/stdio.h" 3 4
typedef struct _IO_FILE __FILE;
# 74 "/usr/include/stdio.h" 3 4
# 1 "/usr/include/libio.h" 1 3 4
# 31 "/usr/include/libio.h" 3 4
# 1 "/usr/include/_G_config.h" 1 3 4
# 15 "/usr/include/_G_config.h" 3 4
# 1 "/usr/lib/gcc/x86_64-linux-gnu/4.8/include/stddef.h" 1 3 4
# 16 "/usr/include/_G_config.h" 2 3 4




# 1 "/usr/include/wchar.h" 1 3 4
# 82 "/usr/include/wchar.h" 3 4
typedef struct
{
  int __count;
  union
  {

    unsigned int __wch;



    char __wchb[4];
  } __value;
} __mbstate_t;
# 21 "/usr/include/_G_config.h" 2 3 4
typedef struct
{
  __off_t __pos;
  __mbstate_t __state;
} _G_fpos_t;
typedef struct
{
  __off64_t __pos;
  __mbstate_t __state;
} _G_fpos64_t;
# 32 "/usr/include/libio.h" 2 3 4
# 49 "/usr/include/libio.h" 3 4
# 1 "/usr/lib/gcc/x86_64-linux-gnu/4.8/include/stdarg.h" 1 3 4
# 40 "/usr/lib/gcc/x86_64-linux-gnu/4.8/include/stdarg.h" 3 4
typedef struct __va_list_tag __gnuc_va_list;
# 50 "/usr/include/libio.h" 2 3 4
# 144 "/usr/include/libio.h" 3 4
struct _IO_jump_t; struct _IO_FILE;
# 154 "/usr/include/libio.h" 3 4
typedef void _IO_lock_t;





struct _IO_marker {
  struct _IO_marker *_next;
  struct _IO_FILE *_sbuf;



  int _pos;
# 177 "/usr/include/libio.h" 3 4
};


enum __codecvt_result
{
  __codecvt_ok,
  __codecvt_partial,
  __codecvt_error,
  __codecvt_noconv
};
# 245 "/usr/include/libio.h" 3 4
struct _IO_FILE {
  int _flags;




  char* _IO_read_ptr;
  char* _IO_read_end;
  char* _IO_read_base;
  char* _IO_write_base;
  char* _IO_write_ptr;
  char* _IO_write_end;
  char* _IO_buf_base;
  char* _IO_buf_end;

  char *_IO_save_base;
  char *_IO_backup_base;
  char *_IO_save_end;

  struct _IO_marker *_markers;

  struct _IO_FILE *_chain;

  int _fileno;



  int _flags2;

  __off_t _old_offset;



  unsigned short _cur_column;
  signed char _vtable_offset;
  char _shortbuf[1];



  _IO_lock_t *_lock;
# 293 "/usr/include/libio.h" 3 4
  __off64_t _offset;
# 302 "/usr/include/libio.h" 3 4
  void *__pad1;
  void *__pad2;
  void *__pad3;
  void *__pad4;
  size_t __pad5;

  int _mode;

  char _unused2[15 * sizeof (int) - 4 * sizeof (void *) - sizeof (size_t)];

};


typedef struct _IO_FILE _IO_FILE;


struct _IO_FILE_plus;

extern struct _IO_FILE_plus _IO_2_1_stdin_;
extern struct _IO_FILE_plus _IO_2_1_stdout_;
extern struct _IO_FILE_plus _IO_2_1_stderr_;
# 338 "/usr/include/libio.h" 3 4
typedef __ssize_t __io_read_fn (void *__cookie, char *__buf, size_t __nbytes);







typedef __ssize_t __io_write_fn (void *__cookie, const char *__buf,
     size_t __n);







typedef int __io_seek_fn (void *__cookie, __off64_t *__pos, int __w);


typedef int __io_close_fn (void *__cookie);
# 390 "/usr/include/libio.h" 3 4
extern int __underflow (_IO_FILE *);
extern int __uflow (_IO_FILE *);
extern int __overflow (_IO_FILE *, int);
# 434 "/usr/include/libio.h" 3 4
extern int _IO_getc (_IO_FILE *__fp);
extern int _IO_putc (int __c, _IO_FILE *__fp);
extern int _IO_feof (_IO_FILE *__fp) ;
extern int _IO_ferror (_IO_FILE *__fp) ;

extern int _IO_peekc_locked (_IO_FILE *__fp);





extern void _IO_flockfile (_IO_FILE *) ;
extern void _IO_funlockfile (_IO_FILE *) ;
extern int _IO_ftrylockfile (_IO_FILE *) ;
# 464 "/usr/include/libio.h" 3 4
extern int _IO_vfscanf (_IO_FILE * , const char * ,
   __gnuc_va_list, int *);
extern int _IO_vfprintf (_IO_FILE *, const char *,
    __gnuc_va_list);
extern __ssize_t _IO_padn (_IO_FILE *, int, __ssize_t);
extern size_t _IO_sgetn (_IO_FILE *, void *, size_t);

extern __off64_t _IO_seekoff (_IO_FILE *, __off64_t, int, int);
extern __off64_t _IO_seekpos (_IO_FILE *, __off64_t, int);

extern void _IO_free_backup_area (_IO_FILE *) ;
# 75 "/usr/include/stdio.h" 2 3 4
# 108 "/usr/include/stdio.h" 3 4


typedef _G_fpos_t fpos_t;




# 164 "/usr/include/stdio.h" 3 4
# 1 "/usr/include/x86_64-linux-gnu/bits/stdio_lim.h" 1 3 4
# 165 "/usr/include/stdio.h" 2 3 4



extern struct _IO_FILE *stdin;
extern struct _IO_FILE *stdout;
extern struct _IO_FILE *stderr;







extern int remove (const char *__filename) ;

extern int rename (const char *__old, const char *__new) ;














extern FILE *tmpfile (void) ;
# 209 "/usr/include/stdio.h" 3 4
extern char *tmpnam (char *__s) ;

# 232 "/usr/include/stdio.h" 3 4





extern int fclose (FILE *__stream);




extern int fflush (FILE *__stream);

# 266 "/usr/include/stdio.h" 3 4






extern FILE *fopen (const char * __filename,
      const char * __modes) ;




extern FILE *freopen (const char * __filename,
        const char * __modes,
        FILE * __stream) ;
# 295 "/usr/include/stdio.h" 3 4

# 306 "/usr/include/stdio.h" 3 4
extern FILE *fdopen (int __fd, const char *__modes) ;
# 329 "/usr/include/stdio.h" 3 4



extern void setbuf (FILE * __stream, char * __buf) ;



extern int setvbuf (FILE * __stream, char * __buf,
      int __modes, size_t __n) ;

# 351 "/usr/include/stdio.h" 3 4





extern int fprintf (FILE * __stream,
      const char * __format, ...);




extern int printf (const char * __format, ...);

extern int sprintf (char * __s,
      const char * __format, ...) ;





extern int vfprintf (FILE * __s, const char * __format,
       __gnuc_va_list __arg);




extern int vprintf (const char * __format, __gnuc_va_list __arg);

extern int vsprintf (char * __s, const char * __format,
       __gnuc_va_list __arg) ;

# 420 "/usr/include/stdio.h" 3 4





extern int fscanf (FILE * __stream,
     const char * __format, ...) ;




extern int scanf (const char * __format, ...) ;

extern int sscanf (const char * __s,
     const char * __format, ...) ;
# 463 "/usr/include/stdio.h" 3 4

# 526 "/usr/include/stdio.h" 3 4





extern int fgetc (FILE *__stream);
extern int getc (FILE *__stream);





extern int getchar (void);

# 550 "/usr/include/stdio.h" 3 4
extern int getc_unlocked (FILE *__stream);
extern int getchar_unlocked (void);
# 565 "/usr/include/stdio.h" 3 4








extern int fputc (int __c, FILE *__stream);
extern int putc (int __c, FILE *__stream);





extern int putchar (int __c);

# 602 "/usr/include/stdio.h" 3 4
extern int putc_unlocked (int __c, FILE *__stream);
extern int putchar_unlocked (int __c);
# 617 "/usr/include/stdio.h" 3 4





extern char *fgets (char * __s, int __n, FILE * __stream)
     ;
# 638 "/usr/include/stdio.h" 3 4
extern char *gets (char *__s) ;


# 684 "/usr/include/stdio.h" 3 4





extern int fputs (const char * __s, FILE * __stream);





extern int puts (const char *__s);






extern int ungetc (int __c, FILE *__stream);






extern size_t fread (void * __ptr, size_t __size,
       size_t __n, FILE * __stream) ;




extern size_t fwrite (const void * __ptr, size_t __size,
        size_t __n, FILE * __s);

# 744 "/usr/include/stdio.h" 3 4





extern int fseek (FILE *__stream, long int __off, int __whence);




extern long int ftell (FILE *__stream) ;




extern void rewind (FILE *__stream);

# 792 "/usr/include/stdio.h" 3 4






extern int fgetpos (FILE * __stream, fpos_t * __pos);




extern int fsetpos (FILE *__stream, const fpos_t *__pos);
# 815 "/usr/include/stdio.h" 3 4

# 824 "/usr/include/stdio.h" 3 4


extern void clearerr (FILE *__stream) ;

extern int feof (FILE *__stream) ;

extern int ferror (FILE *__stream) ;

# 841 "/usr/include/stdio.h" 3 4





extern void perror (const char *__s);






# 1 "/usr/include/x86_64-linux-gnu/bits/sys_errlist.h" 1 3 4
# 854 "/usr/include/stdio.h" 2 3 4




extern int fileno (FILE *__stream) ;
# 885 "/usr/include/stdio.h" 3 4
extern char *ctermid (char *__s) ;
# 913 "/usr/include/stdio.h" 3 4
extern void flockfile (FILE *__stream) ;



extern int ftrylockfile (FILE *__stream) ;


extern void funlockfile (FILE *__stream) ;
# 943 "/usr/include/stdio.h" 3 4

# 3 "./test/test.c" 2
# 1 "/usr/lib/gcc/x86_64-linux-gnu/4.8/include/stdarg.h" 1 3 4
# 98 "/usr/lib/gcc/x86_64-linux-gnu/4.8/include/stdarg.h" 3 4
typedef __gnuc_va_list va_list;
# 4 "./test/test.c" 2
# 1 "/usr/include/math.h" 1 3 4
# 28 "/usr/include/math.h" 3 4




# 1 "/usr/include/x86_64-linux-gnu/bits/huge_val.h" 1 3 4
# 39 "/usr/include/x86_64-linux-gnu/bits/huge_val.h" 3 4
# 1 "/usr/include/endian.h" 1 3 4
# 36 "/usr/include/endian.h" 3 4
# 1 "/usr/include/x86_64-linux-gnu/bits/endian.h" 1 3 4
# 37 "/usr/include/endian.h" 2 3 4
# 40 "/usr/include/x86_64-linux-gnu/bits/huge_val.h" 2 3 4

typedef union { unsigned char __c[8]; double __d; } __huge_val_t;
# 50 "/usr/include/x86_64-linux-gnu/bits/huge_val.h" 3 4
static __huge_val_t __huge_val = { { 0, 0, 0, 0, 0, 0, 0xf0, 0x7f } };
# 33 "/usr/include/math.h" 2 3 4
# 45 "/usr/include/math.h" 3 4
# 1 "/usr/include/x86_64-linux-gnu/bits/mathdef.h" 1 3 4
# 46 "/usr/include/math.h" 2 3 4
# 69 "/usr/include/math.h" 3 4
# 1 "/usr/include/x86_64-linux-gnu/bits/mathcalls.h" 1 3 4
# 52 "/usr/include/x86_64-linux-gnu/bits/mathcalls.h" 3 4


extern double acos (double __x) ; extern double __acos (double __x) ;

extern double asin (double __x) ; extern double __asin (double __x) ;

extern double atan (double __x) ; extern double __atan (double __x) ;

extern double atan2 (double __y, double __x) ; extern double __atan2 (double __y, double __x) ;


extern double cos (double __x) ; extern double __cos (double __x) ;

extern double sin (double __x) ; extern double __sin (double __x) ;

extern double tan (double __x) ; extern double __tan (double __x) ;




extern double cosh (double __x) ; extern double __cosh (double __x) ;

extern double sinh (double __x) ; extern double __sinh (double __x) ;

extern double tanh (double __x) ; extern double __tanh (double __x) ;

# 98 "/usr/include/x86_64-linux-gnu/bits/mathcalls.h" 3 4


extern double exp (double __x) ; extern double __exp (double __x) ;


extern double frexp (double __x, int *__exponent) ; extern double __frexp (double __x, int *__exponent) ;


extern double ldexp (double __x, int __exponent) ; extern double __ldexp (double __x, int __exponent) ;


extern double log (double __x) ; extern double __log (double __x) ;


extern double log10 (double __x) ; extern double __log10 (double __x) ;


extern double modf (double __x, double *__iptr) ; extern double __modf (double __x, double *__iptr) ;

# 151 "/usr/include/x86_64-linux-gnu/bits/mathcalls.h" 3 4


extern double pow (double __x, double __y) ; extern double __pow (double __x, double __y) ;


extern double sqrt (double __x) ; extern double __sqrt (double __x) ;

# 176 "/usr/include/x86_64-linux-gnu/bits/mathcalls.h" 3 4


extern double ceil (double __x) ; extern double __ceil (double __x) ;


extern double fabs (double __x) ; extern double __fabs (double __x) ;


extern double floor (double __x) ; extern double __floor (double __x) ;


extern double fmod (double __x, double __y) ; extern double __fmod (double __x, double __y) ;




extern int __isinf (double __value) ;


extern int __finite (double __value) ;

# 230 "/usr/include/x86_64-linux-gnu/bits/mathcalls.h" 3 4
extern int __isnan (double __value) ;
# 70 "/usr/include/math.h" 2 3 4
# 488 "/usr/include/math.h" 3 4

# 5 "./test/test.c" 2
# 1 "/usr/include/string.h" 1 3 4
# 27 "/usr/include/string.h" 3 4





# 1 "/usr/lib/gcc/x86_64-linux-gnu/4.8/include/stddef.h" 1 3 4
# 33 "/usr/include/string.h" 2 3 4
# 44 "/usr/include/string.h" 3 4


extern void *memcpy (void * __dest, const void * __src,
       size_t __n) ;


extern void *memmove (void *__dest, const void *__src, size_t __n)
     ;

# 64 "/usr/include/string.h" 3 4


extern void *memset (void *__s, int __c, size_t __n) ;


extern int memcmp (const void *__s1, const void *__s2, size_t __n)
     ;
# 96 "/usr/include/string.h" 3 4
extern void *memchr (const void *__s, int __c, size_t __n)
      ;


# 127 "/usr/include/string.h" 3 4


extern char *strcpy (char * __dest, const char * __src)
     ;

extern char *strncpy (char * __dest,
        const char * __src, size_t __n)
     ;


extern char *strcat (char * __dest, const char * __src)
     ;

extern char *strncat (char * __dest, const char * __src,
        size_t __n) ;


extern int strcmp (const char *__s1, const char *__s2)
     ;

extern int strncmp (const char *__s1, const char *__s2, size_t __n)
     ;


extern int strcoll (const char *__s1, const char *__s2)
     ;

extern size_t strxfrm (char * __dest,
         const char * __src, size_t __n)
     ;

# 211 "/usr/include/string.h" 3 4

# 236 "/usr/include/string.h" 3 4
extern char *strchr (const char *__s, int __c)
     ;
# 263 "/usr/include/string.h" 3 4
extern char *strrchr (const char *__s, int __c)
     ;


# 282 "/usr/include/string.h" 3 4



extern size_t strcspn (const char *__s, const char *__reject)
     ;


extern size_t strspn (const char *__s, const char *__accept)
     ;
# 315 "/usr/include/string.h" 3 4
extern char *strpbrk (const char *__s, const char *__accept)
     ;
# 342 "/usr/include/string.h" 3 4
extern char *strstr (const char *__haystack, const char *__needle)
     ;




extern char *strtok (char * __s, const char * __delim)
     ;




extern char *__strtok_r (char * __s,
    const char * __delim,
    char ** __save_ptr)
     ;

extern char *strtok_r (char * __s, const char * __delim,
         char ** __save_ptr)
     ;
# 397 "/usr/include/string.h" 3 4


extern size_t strlen (const char *__s)
     ;

# 411 "/usr/include/string.h" 3 4


extern char *strerror (int __errnum) ;

# 451 "/usr/include/string.h" 3 4
extern void __bzero (void *__s, size_t __n) ;
# 644 "/usr/include/string.h" 3 4

# 6 "./test/test.c" 2
# 18 "./test/test.c"
int A[4], B[4], C[4];

void Hanoi(int,int*,int*,int*);


void PrintAll()
{
   int i;

   printf("A: ");
   for(i=0;i<4;i++)printf(" %d ",A[i]);
   printf("\n");

   printf("B: ");
   for(i=0;i<4;i++)printf(" %d ",B[i]);
   printf("\n");

   printf("C: ");
   for(i=0;i<4;i++)printf(" %d ",C[i]);
   printf("\n");
   printf("------------------------------------------\n");
   return;
}



int Move(int *source, int *dest)
{
   int i = 0, j = 0;

   while (i<4 && (source[i])==0) i++;
   while (j<4 && (dest[j])==0) j++;

   dest[j-1] = source[i];
   source[i] = 0;
   PrintAll();
   return dest[j-1];
}





void Hanoi(int n,int *source, int *dest, int *spare)
{
   int i;
   if(n==1){
      Move(source,dest);
      return;
   }

   Hanoi(n-1,source,spare,dest);
   Move(source,dest);
   Hanoi(n-1,spare,dest,source);
   return;
}

int f()
{
   int i;


   for(i=0;i<4;i++)A[i]=i+1;
   for(i=0;i<4;i++)B[i]=0;
   for(i=0;i<4;i++)C[i]=0;

   printf("Solution of Tower of Hanoi Problem with %d Disks\n\n",4);


   printf("Starting state:\n");
   PrintAll();
   printf("\n\nSubsequent states:\n\n");


   Hanoi(4,A,B,C);

   return 0;
}
int main(void)
{
  printf("%d\n", f());
  return 0;
}
